Place,Name,State,WeightClassKg,BodyweightKg,Age,Best3SquatKg,Best3BenchKg,Best3DeadliftKg,TotalKg,Sex,Division,Equipment,Deadlift4Kg,Event
1,Jay'Lynn Cummings,CA,52,49.8,14,60,40,82.5,182.5,F,Juniors 13-15,Raw,,SBD
1,Queene Resngit,CA,52,51.25,21,77.5,40,97.5,215,F,Juniors 20-23,Raw,,SBD
1,Ariel Flores,CA,56,52.4,22,87.5,40,102.5,230,F,Juniors 20-23,Raw,,SBD
1,Haylie Kosanouvong,CA,60,57.8,15,57.5,32.5,82.5,172.5,F,Juniors 13-15,Raw,,SBD
1,Maggie Delgado,CA,67.5,63.65,23,122.5,60,165,347.5,F,Juniors 20-23,Raw,,SBD
1,Jocelyn Becker,CA,67.5,66.4,20,125,62.5,135,322.5,F,Juniors 20-23,Raw,,SBD
DQ,Brooke Martin,CA,75,68.25,17,80,-57.5,-102.5,,F,Juniors 16-17,Raw,,SBD
1,Selena Arana,CA,75,71.7,22,122.5,52.5,132.5,307.5,F,Juniors 20-23,Raw,,SBD
1,Victoria Ly,CA,82.5,82,20,160,75,197.5,432.5,F,Juniors 20-23,Raw,,SBD
1,Kathryn Clark,CA,90,87.25,15,115,55,132.5,302.5,F,Juniors 13-15,Raw,,SBD
1,Jessika Serrato,CA,90,85.55,20,127.5,62.5,167.5,357.5,F,Juniors 20-23,Raw,,SBD
1,Colleen Castillo,CA,90+,100.8,23,142.5,102.5,160,405,F,Juniors 20-23,Raw,,SBD
2,Amanda Gil,CA,90+,96.3,22,105,62.5,137.5,305,F,Juniors 20-23,Raw,,SBD
1,Queene Resngit,CA,52,51.25,21,77.5,40,97.5,215,F,Open,Raw,,SBD
1,Rachel Bitz,CA,56,55.6,25,107.5,62.5,130,300,F,Open,Raw,,SBD
2,Linda Moua,CA,56,55.5,35,90,57.5,137.5,285,F,Open,Raw,,SBD
1,Shyla Silva,CA,60,59.7,25,100,55,137.5,292.5,F,Open,Raw,,SBD
2,Dulce Pinell,CA,60,58.95,34,92.5,45,102.5,240,F,Open,Raw,,SBD
1,Maggie Delgado,CA,67.5,63.65,23,122.5,60,165,347.5,F,Open,Raw,,SBD
2,Dana Williamson,CA,67.5,65.65,25,120,62.5,150,332.5,F,Open,Raw,,SBD
3,Jocelyn Becker,CA,67.5,66.4,20,125,62.5,135,322.5,F,Open,Raw,,SBD
4,Amber Zink,CA,67.5,65.6,28,117.5,65,130,312.5,F,Open,Raw,,SBD
1,Victoria Ly,CA,82.5,82,20,160,75,197.5,432.5,F,Open,Raw,,SBD
2,Justine Arvisu,CA,82.5,82.2,27,92.5,45,100,237.5,F,Open,Raw,,SBD
1,Kateri Nguyen,CA,90,82.95,25,110,47.5,110,267.5,F,Open,Raw,,SBD
2,Brittiany Saunders,CA,90,84.55,26,87.5,60,100,247.5,F,Open,Raw,,SBD
1,Jessica Ayala,CA,90+,95.45,29,112.5,65,142.5,320,F,Open,Raw,,SBD
DQ,Carolyn Mitchell,CA,90+,123.05,27,-175,72.5,182.5,,F,Open,Raw,,SBD
1,Linda Moua,CA,56,55.5,35,90,57.5,137.5,285,F,Submasters 35-39,Raw,,SBD
1,Carlos Cervantes,CA,75,70.6,16,165,95,232.5,492.5,M,Juniors 16-17,Raw,,SBD
1,Brandon Luu,CA,75,72.1,23,162.5,107.5,210,480,M,Juniors 20-23,Raw,,SBD
2,John Litzo,CA,75,72.1,20,152.5,100,190,442.5,M,Juniors 20-23,Raw,,SBD
1,Jason Sou,CA,82.5,79.8,19,202.5,115,207.5,525,M,Juniors 18-19,Raw,,SBD
1,Arthur Nguyen,CA,82.5,78.9,23,195,132.5,252.5,580,M,Juniors 20-23,Raw,,SBD
1,Vince Dobluis,CA,90,85,18,190,110,217.5,517.5,M,Juniors 18-19,Raw,,SBD
1,Geraldo Calderon,CA,75,69.9,25,195,117.5,207.5,520,M,Open,Raw,,SBD
2,Toan Phan,CA,75,70.7,19,155,85,160,400,M,Open,Raw,,SBD
1,Max Dang,CA,82.5,80.6,24,212.5,102.5,240,555,M,Open,Raw,,SBD
2,Cody Noel,CA,82.5,78.25,28,160,115,187.5,462.5,M,Open,Raw,,SBD
1,Logan Wallers,CA,90,86.3,28,192.5,137.5,235,565,M,Open,Raw,,SBD
2,Chris Gonzales #2,CA,90,89.1,29,190,142.5,227.5,560,M,Open,Raw,,SBD
3,Sean Anderson,CA,90,88.8,24,185,112.5,215,512.5,M,Open,Raw,,SBD
1,Tomas Avilez,CA,100,98.6,38,240,172.5,267.5,680,M,Open,Raw,,SBD
1,JeVon TranColey,CA,100,99.2,25,185,140,202.5,527.5,M,Open,Raw,,SBD
1,Kenneth Martinez,CA,110,108.7,33,227.5,147.5,242.5,617.5,M,Open,Raw,,SBD
1,Jorge Marquez,CA,125,122.75,29,222.5,132.5,245,600,M,Open,Raw,,SBD
1,Jeremy McKellar,CA,75,74.9,39,100,120,185,405,M,Submasters 35-39,Raw,,SBD
1,Tomas Avilez,CA,100,98.6,38,240,172.5,267.5,680,M,Submasters 35-39,Raw,,SBD
2,Varun Taneja,CA,100,99.2,37,245,135,270,650,M,Submasters 35-39,Raw,,SBD
1,Tom Kosanouvang,CA,110,106.8,37,230,185,272.5,687.5,M,Submasters 35-39,Raw,,SBD
1,Leo Hoffman,CA,90,84.3,44,167.5,125,222.5,515,M,Masters 40-44,Raw,,SBD
1,Evelyn Garcia,CA,52,50.8,16,98,55,102.5,255.5,F,Juniors 16-17,Wraps,,SBD
1,Megan McKibben,CA,82.5,80.55,30,130,57.5,157.5,345,F,Open,Wraps,,SBD
1,Jorge Alvarez,CA,82.5,79.5,21,160,107.5,167.5,435,M,Juniors 20-23,Wraps,,SBD
1,Eduardo Castaneda,CA,110,103,20,250,120,240,610,M,Juniors 20-23,Wraps,,SBD
1,Todd Reifsynder,CA,110,105,32,227.5,160,265,652.5,M,Open,Wraps,,SBD
1,Elsie Woo,CA,67.5,62.6,22,,75,,75,F,Juniors 20-23,Raw,,B
1,Elsie Woo,CA,67.5,62.6,22,,75,,75,F,Open,Raw,,B
1,Sonia Rubalcaba,CA,75,70.4,47,,25,,25,F,Masters 45-49,Raw,,B
1,Ryan Reynolds,CA,110,103.3,19,,132.5,,132.5,M,Juniors 18-19,Raw,,B
1,Michael Yates,CA,100,99.2,51,,187.5,,187.5,M,Open,Raw,,B
1,John Stevens,CA,110,107.5,26,,170,,170,M,Open,Raw,,B
1,Steven O'Brien,CA,90,88,68,,130,,130,M,Masters 65-69,Raw,,B
1,Michael Yates,CA,100,99.2,51,,187.5,,187.5,M,Masters 50-54,Raw,,B
1,Sonia Rubalcaba,CA,75,70.4,47,,,65,65,F,Masters 45-49,Raw,,D
1,Joseph Garcia,CA,82.5,82.5,19,,,195,195,M,Juniors 18-19,Raw,,D
1,Arthur Nguyen,CA,82.5,78.9,23,,,252.5,252.5,M,Juniors 20-23,Raw,,D
1,Cody Rosa,CA,100,96,23,,,230,230,M,Juniors 20-23,Raw,,D
1,Kamran Khattak,CA,90,85,26,,,250,250,M,Open,Raw,,D
1,Dustin Behne,CA,90,89.55,36,,,281.5,281.5,M,Submasters 35-39,Raw,285,D
1,Romeo Dublin,CA,90,86.9,42,,,242.5,242.5,M,Masters 40-44,Raw,,D
1,Cristian Arana,CA,100,96.5,19,,,250.5,250.5,M,Juniors 18-19,Single-ply,,D
