Place,Name,Sex,Event,Division,WeightClassKg,Equipment,BirthYear,Team,State,BodyweightKg,Squat1Kg,Squat2Kg,Squat3Kg,Best3SquatKg,Bench1Kg,Bench2Kg,Bench3Kg,Best3BenchKg,Deadlift1Kg,Deadlift2Kg,Deadlift3Kg,Best3DeadliftKg,TotalKg
1,Randal Whitt,M,B,R-M2,120,Raw,1963,ABQ Barbell,NM,114.72,,,,,150,155,157.5,157.5,,,,,157.5
1,Alexander Viola,M,B,R-O,93,Raw,1992,ABQ Barbell,NM,90.67,,,,,85,92.5,100,100.0,,,,,100
1,Randal Whitt,M,B,R-O,120,Raw,1963,ABQ Barbell,NM,114.72,,,,,150,155,157.5,157.5,,,,,157.5
1,Paul Steinman,M,B,R-O,120+,Raw,1970,South Brooklyn Weightlifting Club,NY,127.81,,,,,85,125,-150,125.0,,,,,125
1,Gloria Tiznado,F,D,R-O,84+,Raw,1968,,NM,103.33,,,,,,,,,122.5,132.5,137.5,137.5,137.5
1,Michael Maestas,M,D,R-O,66,Raw,1994,,NM,64.26,,,,,,,,,145,160,175,175.0,175
1,Maura Shuttleworth,F,SBD,R-M1,57,Raw,1976,ABQ Barbell,NM,54.68,87.5,92.5,97.5,97.5,70,75,-80,75.0,90,100,-112.5,100.0,272.5
1,Gladys Norton,F,SBD,R-M1,72,Raw,1977,,NM,69.61,67.5,-75,75,75.0,-42.5,42.5,47.5,47.5,80,87.5,92.5,92.5,215
1,Rhonda Jones,F,SBD,R-M2,57,Raw,1964,,NM,54.38,75,80,82.5,82.5,40,42.5,-45,42.5,122.5,127.5,130,130.0,255
1,Kim Moser #1,F,SBD,R-M2,84,Raw,1961,,NM,79.62,67.5,72.5,75,75.0,45,-47.5,-47.5,45.0,95,100,102.5,102.5,222.5
1,Patricia Kroken,F,SBD,R-M4,84+,Raw,1947,,NM,86.71,75,-80,80,80.0,32.5,,,32.5,100,105,-107.5,105.0,217.5
1,Juanita Najera,F,SBD,R-O,52,Raw,1981,ABQ Barbell,NM,51.75,100,110,-120,110.0,67.5,75,-80,75.0,120,137.5,-167.5,137.5,322.5
1,Camilla Jones,F,SBD,R-O,57,Raw,1985,,NM,56.94,92.5,97.5,102.5,102.5,57.5,62.5,-65,62.5,137.5,145,-150,145.0,310
1,Lauren Fitch,F,SBD,R-O,63,Raw,1991,,NM,61.13,72.5,77.5,85,85.0,47.5,50,52.5,52.5,122.5,130,137.5,137.5,275
2,Desiree Acuna,F,SBD,R-O,63,Raw,1988,,NM,62.42,85,90,100,100.0,40,47.5,-57.5,47.5,102.5,110,117.5,117.5,265
1,Ryann Tanuz,F,SBD,R-O,72,Raw,1998,,NM,69.26,-110,112.5,-120,112.5,65,72.5,85,85.0,115,137.5,-142.5,137.5,335
2,Perla Ramon,F,SBD,R-O,72,Raw,1986,,NM,67.87,-72.5,-77.5,85,85.0,45,50,-57.5,50.0,105,115,125,125.0,260
1,Ryann Tanuz,F,SBD,R-T1,72,Raw,1998,,NM,69.26,-110,112.5,-120,112.5,65,72.5,85,85.0,115,137.5,-142.5,137.5,335
1,Drake Petteys,F,SBD,R-Y,84,Raw,2004,,NM,72.84,45,60,-80,60.0,35,42.5,-45,42.5,50,65,77.5,77.5,180
1,Clint Edwards,M,SBD,O,83,Single-ply,1982,,NM,81.06,210,222.5,-230,222.5,157.5,-172.5,172.5,172.5,220,-227.5,-227.5,220.0,615
1,Brandan Ho,M,SBD,R-JR,66,Raw,1997,,NM,59.36,142.5,150,-157.5,150.0,100,-107.5,-107.5,100.0,145,-152.5,-172.5,145.0,395
DQ,Michael Maestas,M,SBD,R-JR,66,Raw,1994,,NM,64.26,120,-125,-125,120.0,-85,-85,-85,,145,160,175,175.0,
1,Carlos Santoliquido,M,SBD,R-M1,105,Raw,1978,ABQ Barbell,NM,104.00,252.5,265,275,275.0,165,175,-180,175.0,280,290,-302.5,290.0,740
1,Cody Hanson #1,M,SBD,R-M1,120+,Raw,,,NM,131.76,185,197.5,-207.5,197.5,120,125,135,135.0,220,-237.5,-237.5,220.0,552.5
1,Carlos Lewis,M,SBD,R-M3,83,Raw,1958,,TX,77.67,130,150,170,170.0,105,115,125,125.0,130,150,182.5,182.5,477.5
1,Tim Folger,M,SBD,R-M3,105,Raw,1954,,NM,94.28,150,160,170,170.0,100,110,115,115.0,190,205,217.5,217.5,502.5
1,Ricardo Gonzales,M,SBD,R-M3,120+,Raw,1954,,NM,132.25,-115,130,145,145.0,-130,-135,140,140.0,130,140,155,155.0,440
1,Cody Almendarez,M,SBD,R-O,66,Raw,1992,,TX,62.94,135,145,150,150.0,-72.5,75,80,80.0,175,185,190,190.0,420
2,Brandan Ho,M,SBD,R-O,66,Raw,1997,,NM,59.36,142.5,150,-157.5,150.0,100,-107.5,-107.5,100.0,145,-152.5,-172.5,145.0,395
DQ,Michael Maestas,M,SBD,R-O,66,Raw,1994,,NM,64.26,120,-125,-125,120.0,-85,-85,-85,,145,160,175,175.0,
1,Javier Jr Hernandez,M,SBD,R-O,74,Raw,1984,,NM,73.67,-155,155,-175,155.0,-95,100,110,110.0,170,190,210,210.0,475
1,Lianhao Zhou,M,SBD,R-O,83,Raw,1991,,NM,80.25,137.5,152.5,160,160.0,105,117.5,-120,117.5,-182.5,205,215,215.0,492.5
2,Robert Najar,M,SBD,R-O,83,Raw,2000,,NM,81.52,167.5,177.5,-182.5,177.5,105,-107.5,,105.0,-195,195,-200,195.0,477.5
3,George Hoover,M,SBD,R-O,83,Raw,1995,,NM,81.94,142.5,150,160,160.0,-102.5,102.5,-110,102.5,190,200,210,210.0,472.5
1,Carlos Santoliquido,M,SBD,R-O,105,Raw,1978,ABQ Barbell,NM,104.00,252.5,265,275,275.0,165,175,-180,175.0,280,290,-302.5,290.0,740
2,David Bennett #1,M,SBD,R-O,105,Raw,1990,,NM,101.10,202.5,217.5,227.5,227.5,142.5,152.5,-160,152.5,-242.5,262.5,267.5,267.5,647.5
1,Zach Bird,M,SBD,R-O,120,Raw,1993,,NM,116.32,210,222.5,232.5,232.5,152.5,162.5,170,170.0,230,240,245,245.0,647.5
1,Sheldon Wilson,M,SBD,R-O,120+,Raw,1992,,NM,140.35,220,232.5,237.5,237.5,152.5,160,165,165.0,235,242.5,250,250.0,652.5
1,Robert Najar,M,SBD,R-T1,83,Raw,2000,,NM,81.52,167.5,177.5,-182.5,177.5,105,-107.5,,105.0,-195,195,-200,195.0,477.5
1,Cody Hanson #2,M,SBD,R-Y,30,Raw,2007,,NM,28.95,20,25,32.5,32.5,10,15.5,20,20.0,37.5,42.5,47.5,47.5,100
