Division,Name,Sex,Equipment,WeightClassKg,BodyweightKg,Squat1Kg,Squat2Kg,Squat3Kg,Best3SquatKg,Bench1Kg,Bench2Kg,Bench3Kg,Best3BenchKg,Deadlift1Kg,Deadlift2Kg,Deadlift3Kg,Best3DeadliftKg,TotalKg,Place,Event
F-C-Open,Laura Swandel,F,Raw,52,52,35,45,52.5,52.5,37.5,42.5,45,45,85,92.5,97.5,97.5,195,1,SBD
F-C-M1,Rachel Mccaffrey,F,Raw,57,56,57.5,65,72.5,72.5,35,40,45,45,100,-110,117.5,117.5,235,1,SBD
F-C-M1,Karen Burns,F,Raw,57,55.6,65,72.5,80,80,35,40,45,45,-90,97.5,105,105,230,2,SBD
F-C-Open,Noreen McDermott,F,Raw,57,56,70,-77.5,80,80,40,50,55,55,110,117.5,122.5,122.5,257.5,1,SBD
F-C-Open,Wendy Coalter,F,Raw,57,55.4,-60,60,-65,60,37.5,40,42.5,42.5,87.5,95,102.5,102.5,205,2,SBD
F-C-Open,Lauren Elder,F,Raw,63,61.4,95,102.5,107.5,107.5,45,47.5,-50,47.5,145,152.5,157.5,157.5,312.5,1,SBD
F-C-M1,Tess Keeler,F,Raw,72,68.1,52.5,57.5,62.5,62.5,40,42.5,-45,42.5,97.5,105,115,115,220,1,SBD
F-C-M1,Lucille Rowan,F,Raw,72,69.7,50,60,70,70,25,30,-32.5,30,80,90,97.5,97.5,197.5,2,SBD
F-C-U18,Abigail McLean,F,Raw,72,71.9,120,-127.5,127.5,127.5,62.5,67.5,68.5,68.5,150,162.5,170,170,366,1,SBD
F-C-Open,Sarah Connolly,F,Raw,84,78.8,90,102.5,-115,102.5,-65,65,-70,65,125,135,145,145,312.5,1,SBD
F-C-Open,Noreen Wall,F,Raw,84,82.9,-75,75,-80,75,47.5,52.5,55,55,100,107.5,115,115,245,2,SBD
F-C-Open,Donna Cassley,F,Raw,84+,94.7,90,95,102.5,102.5,50,52.5,57.5,57.5,125,135,145,145,305,1,SBD
F-C-Open,Catherine Higgs,F,Raw,84+,101.1,90,95,-100,95,45,50,52.5,52.5,102.5,110,115,115,262.5,2,SBD
M-C-M2,Stevie Shanks,M,Raw,74,71.8,,,,,70,75,-80,75,180,192.5,200,200,,DQ,SBD
M-C-Open,Tommy Burns,M,Raw,74,72.1,185,200,205,205,110,115,120,120,200,212.5,-222.5,212.5,537.5,1,SBD
M-C-Open,Conor Gelston,M,Raw,74,70.6,147.5,152.5,155,155,-87.5,92.5,97.5,97.5,175,187.5,200,200,452.5,2,SBD
M-C-Open,Mark Teague,M,Raw,74,73.7,115,125,137.5,137.5,75,85,-90,85,157.5,165,-185,165,387.5,3,SBD
M-C-U18,Gary Mccrossan,M,Raw,74,73.2,-140,140,155,155,80,-90,92.5,92.5,170,182.5,190,190,437.5,1,SBD
M-C-U18,Andrew Fitzsimons,M,Raw,74,74,115,125,130,130,65,-70,70,70,150,155,160,160,360,2,SBD
M-C-U23,Conor Quinn,M,Raw,74,72.9,115,125,132.5,132.5,95,-102.5,-105,95,180,190,200,200,427.5,1,SBD
M-C-Open,Luke Neal,M,Raw,83,82.1,192.5,200,-207.5,200,125,132.5,137.5,137.5,200,210,217.5,217.5,555,1,SBD
M-C-Open,Jonny Gardner,M,Raw,83,80.2,-170,170,180,180,125,132.5,137.5,137.5,210,-220,220,220,537.5,2,SBD
M-C-Open,Paul Berry,M,Raw,83,81.1,175,185,195,195,117.5,125,127.5,127.5,195,205,215,215,537.5,3,SBD
M-C-Open,Sean Cummings,M,Raw,83,83,180,-190,-190,180,130,135,-137.5,135,200,210,-220,210,525,4,SBD
M-C-Open,Peter Gerard Campbell,M,Raw,83,81.4,145,165,-177.5,165,90,110,-115,110,175,195,210,210,485,5,SBD
M-C-U23,Connor Logue,M,Raw,83,80.4,150,160,-165,160,-120,120,-125,120,190,205,220,220,500,1,SBD
M-C-U23,Sam Mitchell,M,Raw,83,81.6,152.5,160,-165,160,120,125,-127.5,125,192.5,202.5,215,215,500,2,SBD
M-C-M1,Iain McAllister,M,Raw,93,89.6,150,165,-175,165,110,125,-135,125,210,220,230,230,520,1,SBD
M-C-Open,Keith White,M,Raw,93,92.5,200,210,-222.5,210,155,162.5,165,165,230,240,-245,240,615,1,SBD
M-C-Open,Shayne Mone,M,Raw,93,90.5,175,192.5,202.5,202.5,120,132.5,-137.5,132.5,200,215,222.5,222.5,557.5,2,SBD
M-C-Open,Andrew Lupton,M,Raw,93,91,185,195,-205,195,110,115,120,120,220,230,-240,230,545,3,SBD
M-C-Open,Ryan Beatty,M,Raw,93,88.6,160,182.5,200,200,102.5,112.5,117.5,117.5,170,195,210,210,527.5,4,SBD
M-C-Open,Stuart Horne,M,Raw,93,90.6,140,-150,150,150,90,100,105,105,190,200,210,210,465,5,SBD
M-C-U23,Daniel McCafferty,M,Raw,93,88.8,140,-150,155,155,110,-117.5,-117.5,110,165,175,182.5,182.5,447.5,1,SBD
M-C-Open,Michael Bruce,M,Raw,105,103.6,230,255,270,270,140,155,-170,155,220,260,280,280,705,1,SBD
M-C-Open,Mark Robinson,M,Raw,105,99.2,-225,-225,225,225,120,130,-145,130,230,-250,-250,230,585,2,SBD
M-C-Open,Aaron Small,M,Raw,105,104.2,180,200,220,220,107.5,120,-130,120,200,217.5,232.5,232.5,572.5,3,SBD
M-C-Open,Brian Simpson,M,Raw,105,102.3,-175,187.5,195,195,112.5,117.5,-122.5,117.5,215,230,242.5,242.5,555,4,SBD
M-C-Open,Mark Shannon,M,Raw,105,104,160,170,180,180,110,120,125,125,200,220,-235,220,525,5,SBD
M-C-Open,Daniel McIlhagga,M,Raw,105,99.6,162.5,170,175,175,105,110,115,115,210,-227.5,-227.5,210,500,6,SBD
M-C-Open,Ciarán Conroy,M,Raw,105,104.6,125,145,165,165,147.5,155,-160,155,-200,-215,-215,,,DQ,SBD
M-C-U23,Peter Lawrence,M,Raw,105,98,-160,-160,160,160,122.5,-130,-130,122.5,190,200,-215,200,482.5,1,SBD
M-C-U23,Chris Dawson,M,Raw,105,95.5,100,120,-130,120,85,-95,-95,85,-175,175,195,195,400,2,SBD
M-C-U23,Stephen Kennedy,M,Raw,105,102.8,95,105,-120,105,75,90,-100,90,150,160,162.5,162.5,357.5,3,SBD
M-C-M1,Jim Collins,M,Raw,120,110.2,-165,165,-175,165,127.5,132.5,-137.5,132.5,195,205,-210,205,502.5,1,SBD
M-C-Open,John James Gracey,M,Raw,120,112.9,-130,-130,130,130,90,100,110,110,220,235,240,240,480,1,SBD
M-C-Open,Matthew Doyle,M,Raw,120,107.3,,,,,145,155,-157.5,155,,,,,,DQ,SBD
M-C-M3,John Maguire,M,Raw,120+,126.1,-185,-185,-185,,150,-155,155,155,210,240,-250,240,,DQ,SBD
