Name,Place,Division,Sex,Equipment,BodyweightKg,Age,Best3SquatKg,Best3BenchKg,Best3DeadliftKg,TotalKg,Event
Heather Keola,1,Juniors,F,Single-ply,89.81,17,155,72.5,150,377.5,SBD
Suzanne Hedman,1,Open,F,Single-ply,55.34,48,120,87.5,137.5,345,SBD
Bonnie Aerts,2,Open,F,Single-ply,52.98,49,82.5,52.5,101.24,236.24,SBD
Bonnie Aerts,1,Masters 40-49,F,Single-ply,52.98,49,82.5,52.5,101.24,236.24,SBD
Austin Boom,1,Juniors 18-19,M,Single-ply,66.22,19,145.25,100,170.24,415.49,SBD
Greg Lewis,1,Juniors 18-19,M,Single-ply,81.37,19,197.5,160,215,572.49,SBD
John Tripodi,1,Juniors 18-19,M,Single-ply,89.81,18,162.5,135,205,502.49,SBD
Edgar Reyes,1,Juniors 20-23,M,Single-ply,98.43,22,182.5,200,197.5,579.99,SBD
Gerordo Molina,1,Open,M,Single-ply,58.42,28,130,110,182.5,422.49,SBD
Antonio Jimenez,1,Open,M,Single-ply,73.39,34,172.5,135,175,482.5,SBD
Keith Schiessl,1,Open,M,Single-ply,81.65,49,245,155,227.5,627.5,SBD
Antonio Machuca,2,Open,M,Single-ply,80.74,27,215,137.5,237.5,589.99,SBD
Adam Hall,3,Open,M,Single-ply,77.75,29,157.5,140,210,507.49,SBD
Shawn Buckley,1,Open,M,Single-ply,89.45,26,262.5,195,285,742.49,SBD
Nicholas Willis,1,Open,M,Single-ply,97.43,31,252.5,185,260,697.49,SBD
Patrick O'Neal,2,Open,M,Single-ply,99.43,32,230,152.5,237.5,619.99,SBD
Kevin Nieznanski,3,Open,M,Single-ply,96.25,45,227.5,152.5,230,610,SBD
Jerry Amaral,4,Open,M,Single-ply,97.25,45,225,157.5,220,602.49,SBD
Jim Chaaban,1,Open,M,Single-ply,107.95,40,242.5,235,227.5,704.99,SBD
Parish Harmon,2,Open,M,Single-ply,107.68,31,227.5,167.5,227.5,622.49,SBD
Lawrence Allenger,3,Open,M,Single-ply,104.24,34,175,182.5,227,584.49,SBD
Alan Aerts,1,Open,M,Single-ply,123.1,52,170,212.5,250,632.49,SBD
Brad Cikana,1,Open,M,Single-ply,135.62,30,282.5,252.5,255,789.99,SBD
Brian Pacheco,1,Submasters 35-39,M,Single-ply,81.65,37,222.5,175,215,612.49,SBD
Keith Schiessl,1,Masters 40-49,M,Single-ply,81.65,49,245,155,227.5,627.5,SBD
Kevin Nieznanski,1,Masters 40-49,M,Single-ply,96.25,45,227.5,152.5,230,610,SBD
Jerry Amaral,2,Masters 40-49,M,Single-ply,97.25,45,225,157.5,220,602.49,SBD
Jim Chaaban,1,Masters 40-49,M,Single-ply,107.95,40,242.5,235,227.5,704.99,SBD
John Johnson,2,Masters 40-49,M,Single-ply,105.96,48,227.5,205,250,682.49,SBD
Mel Goodwin,1,Masters 40-49,M,Single-ply,116.48,47,227.5,210,245,682.49,SBD
Wayne Jandoc,1,Masters 50-59,M,Single-ply,106.32,50,287.5,197.5,260,744.99,SBD
Alan Aerts,1,Masters 50-59,M,Single-ply,123.1,52,170,212.5,250,632.49,SBD
Deane Knapp,1,Masters 60-69,M,Single-ply,87.09,67,110,80,142.5,332.5,SBD
Roy Erikson,1,Masters 60-69,M,Single-ply,96.43,65,205,127,210.5,542.5,SBD
Ron Pagal,1,Masters 60-69,M,Single-ply,99.79,62,180,140,210,530,SBD
Donald Torrence,1,Masters 70-79,M,Single-ply,76.93,71,160,110,162.5,432.5,SBD
Heather Keola,1,Juniors,F,Single-ply,89.81,17,,72.5,,72.5,B
Bonnie Aerts,1,Open,F,Single-ply,52.98,49,,52.5,,52.5,B
Bonnie Aerts,1,Masters 40-49,F,Single-ply,52.98,49,,52.5,,52.5,B
Lani Powell,1,Masters 40-49,F,Single-ply,34.02,49,,85,,85,B
Greg Lewis,1,Juniors 18-19,M,Single-ply,81.37,19,,160,,160,B
Luke Selig,1,Open,M,Single-ply,69.94,26,,145,,145,B
Adam Hall,1,Open,M,Single-ply,77.75,29,,140,,140,B
Shawn Buckley,1,Open,M,Single-ply,89.45,26,,195,,195,B
Cliff Young,2,Open,M,Single-ply,89.81,40,,115,,115,B
Jeremy Willis #2,1,Open,M,Single-ply,90.26,27,,65,,65,B
Jim Chaaban,1,Open,M,Single-ply,107.95,40,,235,,235,B
Jeff Hunter,2,Open,M,Single-ply,101.79,48,,190,,190,B
Alan Aerts,1,Open,M,Single-ply,123.1,52,,212.5,,212.5,B
Mike Womack,DQ,Open,M,Single-ply,148.32,36,,,,,B
Richard Lopez,1,Submasters 35-39,M,Single-ply,162.11,36,,250,,250,B
Cliff Young,1,Masters 40-49,M,Single-ply,89.81,40,,115,,115,B
Mike DeGennaro,1,Masters 40-49,M,Single-ply,98.52,44,,190,,190,B
Jerry Amaral,2,Masters 40-49,M,Single-ply,97.25,45,,157.5,,157.5,B
Jim Chaaban,1,Masters 40-49,M,Single-ply,107.95,40,,235,,235,B
John Johnson,2,Masters 40-49,M,Single-ply,105.96,48,,205,,205,B
Jeff Hunter,3,Masters 40-49,M,Single-ply,101.79,48,,190,,190,B
Mel Goodwin,1,Masters 40-49,M,Single-ply,116.48,47,,210,,210,B
Al Nebo,1,Masters 50-59,M,Single-ply,73.03,54,,157.5,,157.5,B
Alan Aerts,1,Masters 50-59,M,Single-ply,123.1,52,,212.5,,212.5,B
Dave Marba,1,Masters 60-69,M,Single-ply,96.16,61,,192.5,,192.5,B
Heather Keola,1,Juniors,F,Single-ply,89.81,17,,,150,150,D
Bonnie Aerts,1,Open,F,Single-ply,53.16,49,,,101.24,101.24,D
Debby Sultan,1,Open,F,Single-ply,91.44,50,,,85,85,D
Bonnie Aerts,1,Masters 40-49,F,Single-ply,53.16,49,,,101.24,101.24,D
Debby Sultan,1,Masters 40-49,F,Single-ply,91.44,50,,,85,85,D
Adam Hall,1,Open,M,Single-ply,77.75,29,,,210,210,D
Shawn Buckley,1,Open,M,Single-ply,89.45,26,,,285,285,D
Patrick O'Neal,1,Open,M,Single-ply,99.79,32,,,237.5,237.5,D
John Morrison,2,Open,M,Single-ply,98.43,29,,,230,230,D
Stephen Matthews,3,Open,M,Single-ply,99.79,47,,,200,200,D
Alan Aerts,1,Open,M,Single-ply,123.1,52,,,250,250,D
Cliff Young,1,Masters 40-49,M,Single-ply,89.81,40,,,175,175,D
Jerry Amaral,1,Masters 40-49,M,Single-ply,99.79,45,,,220,220,D
Stephen Matthews,2,Masters 40-49,M,Single-ply,99.79,47,,,200,200,D
John Johnson,1,Masters 40-49,M,Single-ply,105.96,48,,,250,250,D
Jim Chaaban,2,Masters 40-49,M,Single-ply,107.95,40,,,227.5,227.5,D
Jorge Nunez,1,Masters 50-59,M,Single-ply,58.06,52,,,125,125,D
David Burke,1,Masters 50-59,M,Single-ply,79.38,51,,,192.5,192.5,D
Joe Dentice,1,Masters 50-59,M,Single-ply,121.93,50,,,270,270,D
Alan Aerts,2,Masters 50-59,M,Single-ply,123.1,52,,,250,250,D
Deane Knapp,1,Masters 60-69,M,Single-ply,87.09,67,,,142.5,142.5,D
Ron Pagal,1,Masters 60-69,M,Single-ply,99.79,62,,,210,210,D
