Name,Age,BodyweightKg,WeightClassKg,Equipment,Division,Squat1Kg,Squat2Kg,Squat3Kg,Best3SquatKg,Bench1Kg,Bench2Kg,Bench3Kg,Best3BenchKg,Deadlift1Kg,Deadlift2Kg,Deadlift3Kg,Best3DeadliftKg,TotalKg,Event,Sex,Place
Sally McGuirk,57,54.88,56,Wraps,Amateur Masters,65.77,72.57,81.65,81.65,38.56,47.63,49.9,49.9,104.33,-113.4,113.4,113.4,244.94,SBD,F,1
Kerri Fino,17,89.81,90,Wraps,Amateur Teen,102.06,124.74,151.95,151.95,54.43,-63.5,63.5,63.5,117.93,127.01,147.42,147.42,362.87,SBD,F,1
John Luppy,69,73.94,75,Wraps,Amateur Masters,106.59,117.93,124.74,124.74,45.36,63.5,-70.31,63.5,122.47,136.08,-145.15,136.08,324.32,SBD,M,1
Dave Shephard,75,97.98,100,Raw,Amateur Masters,,,,,,,,,185.97,195.04,204.12,204.12,204.12,D,M,1
