Division,WeightClassKg,Place,Name,Team,BodyweightKg,Best3SquatKg,Best3BenchKg,Best3DeadliftKg,TotalKg,Equipment,Event,Sex
Boys,52,1,Eduardo Segura,Pharr Valley View,51.26,129.27,72.57,129.27,331.12,Single-ply,SBD,M
Boys,52,2,Matthew Morales,Edinburg Quest College Prep,47.81,99.79,61.23,127.01,288.03,Single-ply,SBD,M
Boys,52,3,Deigo Gonzalez,Mercedes,51.71,102.06,72.57,113.4,288.03,Single-ply,SBD,M
Boys,52,DQ,Josh Del Angel,McAllen Rowe,51.35,,,,,Single-ply,SBD,M
Boys,52,DQ,Devon Vela,Edinburg Vela,51.71,120.2,83.91,,,Single-ply,SBD,M
Boys,56,1,JJ Ortiz,Los Fresnos,55.38,163.29,111.13,192.78,467.2,Single-ply,SBD,M
Boys,56,2,Francisco Guevara,Edinburg Vela,55.25,158.76,97.52,174.63,430.91,Single-ply,SBD,M
Boys,56,3,Angel Flores,Mercedes,54.88,151.95,95.25,161.03,408.23,Single-ply,SBD,M
Boys,56,4,Christian Vega,Edinburg Vela,54.98,151.95,86.18,170.1,408.23,Single-ply,SBD,M
Boys,56,5,Leo Cuellar,Pharr Valley View,55.79,142.88,83.91,136.08,362.87,Single-ply,SBD,M
Boys,56,6,Carlos Madrigal,Edinburg Quest College Prep,54.52,124.74,92.99,142.88,360.61,Single-ply,SBD,M
Boys,56,7,Christopher Payan,McAllen Memorial,55.79,102.06,79.38,124.74,306.17,Single-ply,SBD,M
Boys,56,8,Ruben Saenz III,McAllen Rowe,54.7,83.91,56.7,102.06,242.67,Single-ply,SBD,M
Boys,56,DQ,Joel Sanchez,Brownsville Veterans Memorial,54.79,,,,,Single-ply,SBD,M
Boys,60,1,Saul Dominguez,Edinburg Vela,59.87,138.35,88.45,170.1,396.89,Single-ply,SBD,M
Boys,60,2,Gerardo Jimenez,Edinburg Quest College Prep,58.79,142.88,99.79,145.15,387.82,Single-ply,SBD,M
Boys,60,3,Marc Ortega,Mercedes,59.87,136.08,81.65,142.88,360.61,Single-ply,SBD,M
Boys,60,4,Jose Colunga,Mercedes,56.79,106.59,68.04,111.13,285.76,Single-ply,SBD,M
Boys,60,DQ,Austin Weise,McAllen Rowe,59.33,154.22,99.79,,,Single-ply,SBD,M
Boys,60,DQ,Vince Hernandez,Pharr Valley View,59.15,208.65,,,,Single-ply,SBD,M
Boys,60,DQ,John M Gonzalez,Edcouch-Elsa,58.79,183.7,97.52,,,Single-ply,SBD,M
Boys,67.5,1,Oscar Monjaraz,Pharr Valley View,66.41,235.87,120.2,226.8,582.87,Single-ply,SBD,M
Boys,67.5,2,Josh Zamora,Weslaco East,67.13,190.51,108.86,208.65,508.02,Single-ply,SBD,M
Boys,67.5,3,Robert Alaniz,Weslaco East,65.41,201.85,108.86,192.78,503.49,Single-ply,SBD,M
Boys,67.5,4,Ryan Rodriguez,Weslaco East,65.77,208.65,111.13,174.63,494.42,Single-ply,SBD,M
Boys,67.5,5,Freddy Gonzalez,Weslaco East,64.86,195.04,122.47,170.1,487.61,Single-ply,SBD,M
Boys,67.5,6,Joshua De Leon,Edinburg Quest College Prep,65.68,174.63,95.25,174.63,444.52,Single-ply,SBD,M
Boys,67.5,7,Juan Aredondo,McAllen Memorial,66.5,163.29,99.79,174.63,437.72,Single-ply,SBD,M
Boys,67.5,8,Elias Trevino,McAllen Memorial,66.5,129.27,81.65,136.08,347,Single-ply,SBD,M
Boys,67.5,DQ,Marcelo Pintos,McAllen Memorial,67.13,176.9,,,,Single-ply,SBD,M
Boys,67.5,DQ,Anthony de Leon,Edinburg Quest College Prep,65.77,149.69,81.65,,,Single-ply,SBD,M
Boys,67.5,DQ,Juan Tamez,Weslaco East,65.14,,,,,Single-ply,SBD,M
Boys,67.5,DQ,Jorge Cavazos,Mercedes,67.13,201.85,,,,Single-ply,SBD,M
Boys,67.5,DQ,Alex Gonzalez,Mercedes,63.5,,,,,Single-ply,SBD,M
Boys,75,1,Eliseo Garzoria,Los Fresnos,74.84,249.48,108.86,285.76,644.1,Single-ply,SBD,M
Boys,75,2,Gilbert Guajardo,Pharr Valley View,74.62,215.46,127.01,219.99,562.45,Single-ply,SBD,M
Boys,75,3,Marky Fonseca,Los Fresnos,72.17,192.78,120.2,210.92,523.9,Single-ply,SBD,M
Boys,75,4,Shehryar Khursheed,Edinburg Quest College Prep,69.49,170.1,115.67,210.92,496.68,Single-ply,SBD,M
Boys,75,5,Adrain Degollado,Edinburg Quest College Prep,74.03,158.76,97.52,188.24,444.52,Single-ply,SBD,M
Boys,75,6,Julian Hernandez,McAllen Memorial,73.3,147.42,104.33,158.76,410.5,Single-ply,SBD,M
Boys,75,7,Robert Vera,Weslaco East,73.94,136.08,92.99,170.1,399.16,Single-ply,SBD,M
Boys,75,8,Armando Aguirre,Weslaco East,69.31,151.95,83.91,147.42,383.29,Single-ply,SBD,M
Boys,75,9,Brandon Manteca,McAllen Memorial,72.76,111.13,97.52,142.88,351.53,Single-ply,SBD,M
Boys,75,DQ,John Salazar,Los Fresnos,70.31,,,,,Single-ply,SBD,M
Boys,75,DQ,Alex Hernandez,Edcouch-Elsa,74.12,,,,,Single-ply,SBD,M
Boys,75,DQ,Eric Hinojosa,Mercedes,74.3,,,,,Single-ply,SBD,M
Boys,75,DQ,Roman Villarreal,McAllen Rowe,73.21,,,,,Single-ply,SBD,M
Boys,75,DQ,Marcus Caceres,Weslaco East,73.48,215.46,145.15,,,Single-ply,SBD,M
Boys,82.5,1,Roy Pedraza,Weslaco East,79.83,249.48,149.69,272.16,671.32,Single-ply,SBD,M
Boys,82.5,2,Fabian Rodriguez,Los Fresnos,82.05,254.01,147.42,251.74,653.17,Single-ply,SBD,M
Boys,82.5,3,Elias Munoz,Edcouch-Elsa,82.1,256.28,145.15,244.94,646.37,Single-ply,SBD,M
Boys,82.5,4,Felix Garza,Edinburg Vela,82.1,199.58,149.69,229.06,578.33,Single-ply,SBD,M
Boys,82.5,5,Ryan Moreno,Los Fresnos,79.02,190.51,129.27,208.65,528.44,Single-ply,SBD,M
Boys,82.5,6,Luis Aguirre,Weslaco East,80.47,213.19,38.56,226.8,478.54,Single-ply,SBD,M
Boys,82.5,7,Ulysses Vasquez,McAllen Memorial,80.38,167.83,120.2,165.56,453.59,Single-ply,SBD,M
Boys,82.5,DQ,Sergio Vela,Brownsville Veterans Memorial,81.01,,,,,Single-ply,SBD,M
Boys,82.5,DQ,Arron Vela,Edinburg Quest College Prep,81.37,,,,,Single-ply,SBD,M
Boys,82.5,DQ,JC Esmailla,McAllen Memorial,79.56,,,,,Single-ply,SBD,M
Boys,82.5,DQ,Jesse Garza,Edcouch-Elsa,79.11,190.51,,,,Single-ply,SBD,M
Boys,90,1,Ernesto Preciado,Pharr Valley View,87.32,233.6,140.61,219.99,594.21,Single-ply,SBD,M
Boys,90,2,Tristan Nino,Edinburg Vela,87.63,219.99,149.69,204.12,573.79,Single-ply,SBD,M
Boys,90,3,Nathan Hernandez,McAllen Rowe,89.45,195.04,147.42,192.78,535.24,Single-ply,SBD,M
Boys,90,4,Mark Zamorano,Los Fresnos,86.77,195.04,122.47,170.1,487.61,Single-ply,SBD,M
Boys,90,5,Matthew Vela,Weslaco East,86.18,190.51,104.33,183.7,478.54,Single-ply,SBD,M
Boys,90,6,Sergio Sanchez,McAllen Memorial,88.63,158.76,115.67,204.12,478.54,Single-ply,SBD,M
Boys,90,7,Angel Gutierrez,Pharr Valley View,86.32,163.29,79.38,170.1,412.77,Single-ply,SBD,M
Boys,90,DQ,Joel Garcia,Pharr Valley View,88.13,183.7,,,,Single-ply,SBD,M
Boys,90,DQ,Bryan Smith,Mercedes,83.73,190.51,,,,Single-ply,SBD,M
Boys,90,DQ,Brandon Martinez,Brownsville Veterans Memorial,84.82,240.4,136.08,,,Single-ply,SBD,M
Boys,90,DQ,David Decanini #2,Weslaco East,89.81,226.8,,,,Single-ply,SBD,M
Boys,100,1,Rafael Montemayor,Edinburg Vela,96.98,247.21,151.95,226.8,625.96,Single-ply,SBD,M
Boys,100,2,Gerald Salinas,Edcouch-Elsa,99.79,233.6,158.76,226.8,619.15,Single-ply,SBD,M
Boys,100,3,Wally Santamaria,Los Fresnos,99.65,226.8,120.2,260.82,607.81,Single-ply,SBD,M
Boys,100,4,Cesar Garza,Edinburg Vela,98.52,224.53,154.22,226.8,605.55,Single-ply,SBD,M
Boys,100,5,Norby Fuentes,Edcouch-Elsa,99.7,222.26,165.56,201.85,589.67,Single-ply,SBD,M
Boys,100,6,Ramiro Aguirre,Weslaco East,94.8,215.46,170.1,197.31,582.87,Single-ply,SBD,M
Boys,100,7,Noah Cisneros,McAllen Memorial,97.79,201.85,149.69,215.46,566.99,Single-ply,SBD,M
Boys,100,8,Gerald Garza,Weslaco East,95.8,192.78,133.81,204.12,530.7,Single-ply,SBD,M
Boys,100,9,Micael Gutierrez,Mercedes,94.89,197.31,124.74,195.04,517.1,Single-ply,SBD,M
Boys,100,10,Mario Cervantes,McAllen Rowe,91.26,181.44,120.2,208.65,510.29,Single-ply,SBD,M
Boys,100,11,Sergio Valdes,McAllen Rowe,99.16,161.03,113.4,188.24,462.66,Single-ply,SBD,M
Boys,100,DQ,Norberto Salinas,McAllen Rowe,95.89,136.08,113.4,,,Single-ply,SBD,M
Boys,100,DQ,Isreal Alfaro,Weslaco East,98.97,,,,,Single-ply,SBD,M
Boys,100,DQ,Nick Bazan,McAllen Memorial,96.52,206.38,,,,Single-ply,SBD,M
Boys,100,DQ,Frank Opazo,McAllen Memorial,91.17,,,,,Single-ply,SBD,M
Boys,100,DQ,Sergio Pena,Edinburg Quest College Prep,98.97,158.76,97.52,,,Single-ply,SBD,M
Boys,110,1,Teodoro Garcia,McAllen Memorial,108.77,281.23,170.1,240.4,691.73,Single-ply,SBD,M
Boys,110,2,Freddy Martinez,Los Fresnos,109.36,260.82,181.44,231.33,673.58,Single-ply,SBD,M
Boys,110,3,Sammy De Leon,Brownsville Veterans Memorial,109.13,276.69,165.56,222.26,664.51,Single-ply,SBD,M
Boys,110,4,Jarome Torres,McAllen Memorial,108.14,235.87,145.15,192.78,573.79,Single-ply,SBD,M
Boys,110,5,Alan Hernandez #2,McAllen Rowe,109.77,204.12,136.08,215.46,555.65,Single-ply,SBD,M
Boys,110,DQ,Joey Carreron,Edinburg Vela,103.6,,,,,Single-ply,SBD,M
Boys,125,1,Johnathan Banda,Weslaco East,121.47,288.03,167.83,278.96,734.82,Single-ply,SBD,M
Boys,125,2,Pablo Trevino,Edinburg Vela,119.66,274.42,174.63,254.01,703.07,Single-ply,SBD,M
Boys,125,3,Ricky Estimbo,Edcouch-Elsa,115.03,290.3,151.95,222.26,664.51,Single-ply,SBD,M
Boys,125,4,Jaime Longoria,Los Fresnos,121.7,272.16,136.08,224.53,632.76,Single-ply,SBD,M
Boys,125,5,Virgil Munoz,Los Fresnos,122.52,258.55,151.95,222.26,632.76,Single-ply,SBD,M
Boys,125,6,Marcos Martinez,Weslaco East,115.48,231.33,129.27,226.8,587.4,Single-ply,SBD,M
Boys,125,7,Genaro Cantu,Pharr Valley View,114.31,181.44,92.99,147.42,421.84,Single-ply,SBD,M
Boys,125,DQ,Orlando Cabrera,Weslaco East,122.02,174.63,,,,Single-ply,SBD,M
Boys,125,DQ,Hugo Iglesias,McAllen Memorial,116.48,,,,,Single-ply,SBD,M
Boys,125+,1,Michael Vega,McAllen Rowe,130.18,267.62,176.9,208.65,653.17,Single-ply,SBD,M
Boys,125+,2,Aaron Rivera,McAllen Rowe,165.02,235.87,167.83,242.67,646.37,Single-ply,SBD,M
Boys,125+,3,Cesar Davila,McAllen Memorial,149.5,197.31,122.47,170.1,489.88,Single-ply,SBD,M
Boys,125+,4,Enrique Guajardo,Pharr Valley View,125.78,183.7,104.33,172.37,460.4,Single-ply,SBD,M
Boys,125+,DQ,Juan Hernandez #6,McAllen Memorial,126.1,176.9,133.81,,,Single-ply,SBD,M
Boys,125+,DQ,Danny Melendez,Mercedes,125.74,,,,,Single-ply,SBD,M
