Place,WeightClassKg,Name,State,BodyweightKg,Best3SquatKg,Best3BenchKg,Best3DeadliftKg,TotalKg,Division,Sex,Event,Equipment
1,67.5,Mary Hetzel,CO,65.32,137.5,95,145,377.5,m2,F,SBD,Wraps
1,52,Leona Prillaman,CO,51.94,60,27.5,62.5,150,jr,F,SBD,Wraps
1,60,Krysti Hughes,CO,59.96,,97.5,,97.5,m2,F,B,Single-ply
1,67.5,Mary Hetzel,CO,65.32,,95,,95,m2,F,B,Single-ply
1,67.5,Emily Mileva,CO,62.55,,47.5,,47.5,mp,F,B,Single-ply
1,60,D'Ann Anderson,CO,59.38,,65,102.5,167.5,nov,F,BD,Raw
1,82.5,Kim Meyer-Lee,CO,79.33,,60,87.5,147.5,m2,F,BD,Raw
1,82.5,Maria Lahman,CO,76.61,,50,95,145,m1,F,BD,Raw
1,90+,Meredith Miller,CO,101.65,,42.5,67.5,110,m2,F,BD,Raw
1,67.5,Sharon Wortham,CO,62.46,,45,,45,open,F,B,Raw
1,67.5,Emily Mileva,CO,62.55,,47.5,,47.5,m1,F,B,Raw
1,90,Megan Berry,CO,87,,55,,55,int,F,B,Raw
1,90,Ellen Sample,CO,86.59,127.5,62.5,152.5,342.5,m1,F,SBD,Wraps
1,52,Victoria Morgan,CO,51.53,85,55,102.5,242.5,m1,F,SBD,Wraps
1,90,Megan Berry,CO,87,90,55,137.5,282.5,int,F,SBD,Wraps
1,75,Jennifer Piggott,CO,71.71,90,52.5,110,252.5,mp,F,SBD,Wraps
1,75,Jennifer Piggott,CO,71.71,90,52.5,110,252.5,nov,F,SBD,Wraps
1,75,Jennifer Piggott,CO,71.71,90,52.5,110,252.5,pure,F,SBD,Wraps
1,90+,Patty Olson,CO,98.34,75,57.5,145,277.5,m1,F,SBD,Wraps
1,75,Yvonne Blanco,CO,68.63,57.5,50,107.5,215,sm2,F,SBD,Wraps
1,82.5,Kim Meyer-Lee,CO,79.33,75,60,87.8,222.8,m2,F,SBD,Wraps
2,90+,Darla Bradford,CO,94.94,65,52.5,125,242.5,m1,F,SBD,Wraps
1,67.5,Mary Hetzel,CO,65.32,,95,145,240,m2,F,BD,Raw
1,52,Elena Rivera,CO,50.35,,55,100,155,m1,F,BD,Raw
1,75,Ashley Whitbread,CO,74.34,,45,82.5,127.5,hs,F,BD,Raw
1,90+,Meredith Miller,CO,101.65,,42.5,67.5,110,m2,F,BD,Raw
1,90,Rob Wardlaw,CO,87.36,227.5,177.5,245,650,p+f,M,SBD,Single-ply
1,110,Nicholas Lucchino,CO,108.18,252.5,195,267.5,715,int,M,SBD,Single-ply
1,110,Nicholas Lucchino,CO,108.18,252.5,195,267.5,715,pure,M,SBD,Single-ply
1,100,Paul Skipp,CO,98.16,232.5,147.5,242.5,622.5,open,M,SBD,Single-ply
1,110,William Moody,CO,106.32,227.5,137.5,255,620,m2,M,SBD,Single-ply
1,82.5,Dennis Petersen,CO,82.1,202.5,117.5,205,525,m1,M,SBD,Single-ply
1,82.5,Dennis Petersen,CO,82.1,202.5,117.5,205,525,mp,M,SBD,Single-ply
1,56,Mason Ammerman,CO,52.53,137.5,97.5,135,370,hs,M,SBD,Single-ply
1,56,Mason Ammerman,CO,52.53,137.5,97.5,135,370,teen,M,SBD,Single-ply
1,100,Yancy Johnson,CO,97.79,147.5,125,212.5,485,nov,M,SBD,Single-ply
1,100,Joshua Blottlawx,CO,94.21,147.5,87.5,187.5,422.5,hs,M,SBD,Single-ply
1,90,John Lucchino,CO,88.9,25,167.5,212.5,405,m2,M,SBD,Single-ply
1,90,John Lucchino,CO,88.9,25,167.5,212.5,405,mp,M,SBD,Single-ply
1,82.5,Gary Olson,CO,78.74,120,87.5,152.5,360,m2,M,SBD,Single-ply
1,100,Matt Cussins,CO,96.8,,250,,250,m1,M,B,Single-ply
1,100,Matt Cussins,CO,96.8,,250,,250,open,M,B,Single-ply
1,100,Matt Cussins,CO,96.8,,250,,250,pure,M,B,Single-ply
1,110,Peter Maynard,NE,103.65,,210,,210,m1,M,B,Single-ply
1,110,Peter Maynard,NE,103.65,,210,,210,mp,M,B,Single-ply
1,110,Peter Maynard,NE,103.65,,210,,210,open,M,B,Single-ply
1,82.5,Josh Thomas,CO,81.51,,152.5,205,357.5,pure,M,BD,Raw
1,110,Tim Ruddy,CO,109.63,,155,217.5,372.5,sm2,M,BD,Raw
1,82.5,Troy Fossceco,CO,79.33,,97.5,212.5,310,teen,M,BD,Raw
1,100,Jeff Miller,CO,96.66,,145,205,350,m2,M,BD,Raw
1,100,Jesse James Schulz,CO,91.76,,137.5,200,337.5,nov,M,BD,Raw
1,110,Lou Fossceco,CO,108.59,,162.5,192.5,355,m1,M,BD,Raw
1,82.5,Ryan Rabson,CO,75.02,,100,182.5,282.5,nov,M,BD,Raw
1,100,John Lynn Jr,CO,92.76,,107.5,132.5,240,m3,M,BD,Raw
1,140+,Joshua Burgess,CO,149.78,,,250,250,int,M,D,Raw
1,125,Rick Geller,CO,116.53,,192.5,,192.5,m2,M,B,Raw
1,75,George Wortham,CO,71.03,,115,,115,pure,M,B,Raw
1,100,Richard Byars,CO,92.53,,175,,175,m2,M,B,Raw
1,125,Rick Geller,CO,116.53,,192.5,,192.5,m2,M,B,Raw
1,110,Bryan Loyd,CO,107.14,,185,,185,m1,M,B,Raw
1,90,Tim Garza,CO,88.63,,167.5,,167.5,jr,M,B,Raw
1,90,Larry Grajeda,CO,82.83,,160,,160,int,M,B,Raw
1,82.5,Jeremy Koci,WY,81.01,,155,,155,open,M,B,Raw
1,125,Paul Gaines,CO,113.62,,182.5,,182.5,m1,M,B,Raw
1,110,John Alaniz,CO,108.77,,167.5,,167.5,mp,M,B,Raw
1,75,Brandon Grajeda,CO,70.44,,130,,130,jr,M,B,Raw
2,100,Greg Eldridge,CO,92.76,,140,,140,m2,M,B,Raw
2,75,Tyler Cussins,CO,72.94,,77.5,,77.5,jr,M,B,Raw
DQ,90,Nick Arguello,CO,84.32,,,,,m1,M,B,Raw
DQ,90,Nick Arguello,CO,84.32,,,,,open,M,B,Raw
1,82.5,Jeremy Koci,WY,81.01,205,155,232.5,592.5,open,M,SBD,Wraps
1,75,Collis Spann,CO,74.53,160,137.5,250,547.5,nov,M,SBD,Wraps
1,75,Collis Spann,CO,74.53,160,137.5,250,547.5,open,M,SBD,Wraps
1,75,Collis Spann,CO,74.53,160,137.5,250,547.5,pure,M,SBD,Wraps
1,90,Andrew Zook,WY,89.09,192.5,160,240,592.5,pure,M,SBD,Wraps
1,100,Richard Byars,CO,92.53,195,175,227.5,597.5,m2,M,SBD,Wraps
1,90,Enrique Garcia,CO,89.04,205,160,215,580,sm2,M,SBD,Wraps
1,90,Nick DeBolt,CO,86.77,185,130,215,530,smp,M,SBD,Wraps
1,90,Ed Arispe,CO,88.13,182.5,110,235,527.5,m2,M,SBD,Wraps
1,90,Ed Arispe,CO,88.13,182.5,110,235,527.5,mp,M,SBD,Wraps
1,125,Rich Brown,CO,123.97,205,147.5,260,612.5,m2,M,SBD,Wraps
1,75,Michael Burnet,CO,71.49,172.5,102.5,182.5,457.5,jr,M,SBD,Wraps
1,125,Charlie Redmond,CO,123.83,160,155,265,580,open,M,SBD,Wraps
1,125,Charlie Redmond,CO,123.83,160,155,265,580,pure,M,SBD,Wraps
1,110,Drew Anderson,CO,108.68,182.5,122.5,237.5,542.5,m1,M,SBD,Wraps
1,125,Mike Edmunds,CO,121.15,192.5,137.5,240,570,nov,M,SBD,Wraps
1,75,Andrew Poletti,CO,73.3,165,92.5,185,442.5,hs,M,SBD,Wraps
1,100,Evan Pennington,CO,93.44,170,127.5,202.5,500,open,M,SBD,Wraps
1,100,Evan Pennington,CO,93.44,170,127.5,202.5,500,pure,M,SBD,Wraps
1,90,Jason Bauer,CO,85.41,165,107.5,205,477.5,hs,M,SBD,Wraps
1,100,Matt Oster,CO,92.85,160,102.5,230,492.5,jr,M,SBD,Wraps
1,75,Rick Morgan,CO,74.3,117.5,105,182.5,405,m2,M,SBD,Wraps
1,75,Tyler Koci,WY,74.3,130,102.5,167.5,400,sm2,M,SBD,Wraps
1,75,Tim Rickett,CO,71.03,115,110,150,375,m1,M,SBD,Wraps
1,90,Barney Hertzog,CO,86.14,82.5,60,142.5,285,m3,M,SBD,Wraps
1,110,James Whitbread,CO,105.28,,192.5,230,422.5,m1,M,BD,Raw
1,100,Jeff Miller,CO,96.66,,145,205,350,m2,M,BD,Raw
1,125,Rich Strang,CO,114.49,,167.5,187.5,355,p+f,M,BD,Raw
1,100,Cliff Martin,CO,93.49,,110,195,305,m3,M,BD,Raw
1,100,Cliff Martin,CO,93.49,,110,195,305,pure,M,BD,Raw
1,110,Rich Reding,CO,106.1,,117.5,205,322.5,m3,M,BD,Raw
1,110,Adrian Martinez,CO,105.64,,147.5,147.5,295,m2,M,BD,Raw
1,110,Jesse Delany,CO,100.92,,97.5,170,267.5,hs,M,BD,Raw
